{
"Category":[{
  "pId": "01",
  "pname": "ConsumerGoods",
  "discper": "5"
},
{
"pId": "02",
"pname": "Grocery",
"discper": "15"
},
{
"pId": "03",
"pname": "OrganicFood",
"discper": "10"
},
  { "pId": "04",
  "pname": "Baby Product",
  "discper": "10"
  }
  ]
}
