{
  "Slab":[
    {
      "RangeMin":"0",
      "RangeMax":"3000",
      "discPerc":"2"
    },
    {
      "RangeMin":"3001",
      "RangeMax":"7000",
      "discPerc":"4"
    },

    {
      "RangeMin":"7001",
      "RangeMax":"10000",
      "discPerc":"10"
    }

  ]
}